…
    ## file min/max dates: 1869-01-01 / 2023-11-30

### Then I will clean the dataset.

``` r
centralpark_df = 
  weather_df |> 
  drop_na(prcp, tmax, tmin) |> 
  select(id, tmax, tmin, prcp)

centralpark_df
```

    ## # A tibble: 365 × 4
    ##    id           tmax  tmin  prcp
    ##    <chr>       <dbl> <dbl> <dbl>
    ##  1 USW00094728  13.3  10     201
    ##  2 USW00094728  15     2.8    10
    ##  3 USW00094728   2.8  -5.5     0
    ##  4 USW00094728   1.1  -7.1     0
    ##  5 USW00094728   8.3  -0.5    58
    ##  6 USW00094728   5     1.1     0
    ##  7 USW00094728   1.1  -3.8    97
    ##  8 USW00094728  -1    -6.6     0
    ##  9 USW00094728   4.4  -1.6    25
    ## 10 USW00094728   4.4  -4.3     0
    ## # ℹ 355 more rows
…
    ## Rows: 4342 Columns: 20
    ## ── Column specification ────────────────────────────────────────────────────────
    ## Delimiter: ","
    ## dbl (20): babysex, bhead, blength, bwt, delwt, fincome, frace, gaweeks, malf...
    ## 
    ## ℹ Use `spec()` to retrieve the full column specification for this data.
    ## ℹ Specify the column types or set `show_col_types = FALSE` to quiet this message.

``` r
birthweight_df
```

    ## # A tibble: 4,342 × 20
    ##    babysex bhead blength   bwt delwt fincome frace gaweeks malform menarche
    ##    <fct>   <dbl>   <dbl> <dbl> <dbl>   <dbl> <fct>   <dbl> <fct>      <dbl>
    ##  1 2          34      51  3629   177      35 1        39.9 0             13
    ##  2 1          34      48  3062   156      65 2        25.9 0             14
    ##  3 2          36      50  3345   148      85 1        39.9 0             12
    ##  4 1          34      52  3062   157      55 1        40   0             14
    ##  5 2          34      52  3374   156       5 1        41.6 0             13
    ##  6 1          33      52  3374   129      55 1        40.7 0             12
    ##  7 2          33      46  2523   126      96 2        40.3 0             14
    ##  8 2          33      49  2778   140       5 1        37.4 0             12
    ##  9 1          36      52  3515   146      85 1        40.3 0             11
    ## 10 1          33      50  3459   169      75 2        40.7 0             12
    ## # ℹ 4,332 more rows
    ## # ℹ 10 more variables: mheight <dbl>, momage <dbl>, mrace <fct>, parity <dbl>,
    ## #   pnumlbw <dbl>, pnumsga <dbl>, ppbmi <dbl>, ppwt <dbl>, smoken <dbl>,
    ## #   wtgain <dbl>
…
